{
  "name": "CustomerToken",
  "base": "AccessToken",
  "idInjection": true,
  "options": {
    "validateUpsert": true
  },
  "properties": {},
  "validations": [],
  "relations": {
    "customer": {
      "type": "belongsTo",
      "model": "Customer",
      "foreignKey": "userId"
    }
  },
  "acls": [],
  "methods": {}
}
