{
  "name": "Playlist",
  "base": "PersistedModel",
  "idInjection": true,
  "options": {
    "validateUpsert": true
  },
  "properties": {
    "name": {
      "type": "string",
      "required": true,
      "default": "Untitled"
    }
  },
  "validations": [],
  "relations": {
    "products": {
      "type": "hasAndBelongsToMany",
      "model": "Product"
    }
  },
  "acls": [],
  "methods": {}
}
